{
  p1:{
    keys:{
      up:"W",
      down:"S",
      left:"A",
      right:"D",
      btn1:"B",
      btn2:"N",
      btn3:"M"
    }
  },

  p2:{
    keys:{
      up:"UP",
      down:"DOWN",
      left:"LEFT",
      right:"RIGHT",
      btn1:"I",
      btn2:"O",
      btn3:"P"
    }
  }
}