{
  name:Ken,
  speed:160,
  collision:"collisions/ken.col",
  states:[
    {
      id:"idle",
      regions: "ken_idle",
      frameDelay: 0.05f,
      sequence:[0, 1, 2, 3, 4, 5, 6, 7, 8, 9],
      loop:true
    },

    {
      id:"walk_fw",
      regions: "ken_walk",
      frameDelay: 0.05f,
      sequence:[0, 1, 2, 3, 4, 5, 6, 7, 8, 9, 10],
      loop:true
    },

    {
      id:"walk_bw",
      regions: "ken_walkbw",
      frameDelay: 0.05f,
      sequence:[0, 1, 2, 3, 4, 5, 6, 7, 8, 9, 10],
      loop:true
    },

    {
      id:"jump_up",
      regions: "ken_jumpup",
      frameDelay: 0.1f,
      sequence:[0, 1, 2, 3, 4, 5, 6, 7, 8, 9, 10],
      loop:false
    },

    {
      id:"light_punch",
      regions: "ken_flp",
      frameDelay: 0.05f,
      sequence:[0, 1, 2, 3, 4],
      loop:false
    },

    {
      id:"damage_high",
      regions: "ken_damage_high",
      frameDelay: 0.05f,
      sequence:[0, 1, 2, 3],
      loop:false
    }
  ],
}